[{"userId":26,"IBAN":"GT15 P3SI HQ8T FXBE CQPE 7GTI YP6H","balance":50,"currency":"PHP"},
{"userId":30,"IBAN":"KZ64 681F KUGP PCXT 273D","balance":90,"currency":"CAD"},
{"userId":9,"IBAN":"AE79 2264 4009 3561 3960 608","balance":91,"currency":"CNY"},
{"userId":23,"IBAN":"CZ30 8554 0050 2469 9194 6501","balance":8,"currency":"ARS"},
{"userId":26,"IBAN":"AE11 2043 5893 0889 6648 047","balance":73,"currency":"SEK"},
{"userId":1,"IBAN":"HR52 9597 5910 1833 3926 3","balance":58,"currency":"SEK"},
{"userId":26,"IBAN":"NO82 3519 5606 507","balance":80,"currency":"CNY"},
{"userId":22,"IBAN":"MT19 RZQO 1121 8ET4 HVXD FT19 FZ4N KVM","balance":36,"currency":"IDR"},
{"userId":10,"IBAN":"KW33 XIJS IKYB QXIO H2U7 PMB2 YQZ0 4D","balance":66,"currency":"PLN"},
{"userId":9,"IBAN":"BH90 YSIG RBZ3 CJHJ TLU1 TL","balance":39,"currency":"PHP"},
{"userId":15,"IBAN":"PL16 6652 8477 9577 7893 9766 5680","balance":96,"currency":"IDR"},
{"userId":16,"IBAN":"GI20 BIHB 8I1W HECM LGLM U8S","balance":93,"currency":"CNY"},
{"userId":7,"IBAN":"HU92 8498 3009 1175 0512 6193 7422","balance":22,"currency":"BRL"},
{"userId":12,"IBAN":"ME96 1846 7728 8141 1853 97","balance":9,"currency":"EUR"},
{"userId":29,"IBAN":"NO50 6462 4060 723","balance":94,"currency":"PHP"},
{"userId":1,"IBAN":"BA93 4999 8500 8167 3830","balance":44,"currency":"JPY"},
{"userId":15,"IBAN":"PK22 EDBP 7YCJ WNMX RREC FSJC","balance":67,"currency":"EUR"},
{"userId":19,"IBAN":"SK68 5121 9123 5872 4040 3454","balance":96,"currency":"IDR"},
{"userId":9,"IBAN":"MC93 1489 7075 28ZW PEHX P27P Q05","balance":26,"currency":"ILS"},
{"userId":17,"IBAN":"ME40 4815 8837 7131 6512 95","balance":96,"currency":"KZT"},
{"userId":8,"IBAN":"AL22 6283 4597 AFTZ NATL PHZE TH4U","balance":85,"currency":"NAD"},
{"userId":20,"IBAN":"LV34 FLCD EISE 6Z1Z VL63 N","balance":58,"currency":"SOS"},
{"userId":18,"IBAN":"FR86 7997 2372 69CW P0PU CM2D 751","balance":97,"currency":"ETB"},
{"userId":23,"IBAN":"GR36 8137 765O F2ZA VKN9 YJ23 4FO","balance":10,"currency":"SEK"},
{"userId":26,"IBAN":"MC87 8527 5929 5072 0NNH IIQA F74","balance":84,"currency":"ARS"},
{"userId":18,"IBAN":"MR19 5859 3931 8880 9822 7816 752","balance":35,"currency":"UAH"},
{"userId":19,"IBAN":"FR92 4618 9871 37MC 27QO VRZS W75","balance":10,"currency":"CNY"},
{"userId":30,"IBAN":"EE88 4750 0993 5650 7643","balance":73,"currency":"SEK"},
{"userId":26,"IBAN":"CH90 5743 709Q E4WB ORQF L","balance":35,"currency":"NGN"},
{"userId":3,"IBAN":"GI97 EAQW QOYY 4SV7 GQF1 SU4","balance":12,"currency":"ZWL"},
{"userId":28,"IBAN":"FO71 1652 1235 6085 12","balance":50,"currency":"IDR"},
{"userId":22,"IBAN":"FR33 6702 1446 60NJ GGMG UFJA N55","balance":87,"currency":"SRD"},
{"userId":9,"IBAN":"AZ07 GXBE HUE1 EGIA ROC0 5LD8 YRH8","balance":45,"currency":"TND"},
{"userId":9,"IBAN":"SA74 8606 EYMZ FSMS MAY4 PYLI","balance":13,"currency":"PHP"},
{"userId":11,"IBAN":"DK86 4659 2835 4817 74","balance":16,"currency":"CNY"},
{"userId":19,"IBAN":"CR17 7794 0783 0207 4318 3","balance":49,"currency":"CNY"},
{"userId":6,"IBAN":"BE08 9744 8858 5812","balance":92,"currency":"CNY"},
{"userId":15,"IBAN":"LB61 0811 X76Q NEBR MHZC IYXE JZB1","balance":46,"currency":"JPY"},
{"userId":25,"IBAN":"SI74 1485 4475 6347 965","balance":8,"currency":"LAK"},
{"userId":6,"IBAN":"LB32 4362 O7KQ OAXP YM1F FOHC AXEE","balance":95,"currency":"CNY"},
{"userId":6,"IBAN":"FR12 4547 3450 69RN A4XK FFLF F96","balance":40,"currency":"IDR"},
{"userId":9,"IBAN":"CZ73 8426 7694 2222 3959 6463","balance":22,"currency":"HNL"},
{"userId":23,"IBAN":"BE14 4435 5120 8334","balance":82,"currency":"BAM"},
{"userId":15,"IBAN":"IE24 LAOR 1319 7665 2160 14","balance":65,"currency":"CNY"},
{"userId":22,"IBAN":"MR95 7088 7611 8658 5811 0894 868","balance":51,"currency":"EUR"},
{"userId":10,"IBAN":"TR82 3179 3NVW IVGZ YTTP BOZ6 WQ","balance":21,"currency":"HNL"},
{"userId":21,"IBAN":"FR89 8167 9444 94AQ KVSM BKJP J65","balance":66,"currency":"RUB"},
{"userId":14,"IBAN":"MR09 3344 3142 3010 5709 2144 851","balance":41,"currency":"UAH"},
{"userId":8,"IBAN":"BG80 PURI 8265 723V KGW4 U2","balance":46,"currency":"IDR"},
{"userId":27,"IBAN":"CR41 7688 1852 2980 5941 6","balance":28,"currency":"NGN"},
{"userId":27,"IBAN":"LT58 2616 1429 6126 4663","balance":81,"currency":"VND"},
{"userId":5,"IBAN":"SI24 0295 2203 3475 964","balance":56,"currency":"MXN"},
{"userId":1,"IBAN":"SM92 O309 5053 060L 3TRE RAHL W2X","balance":50,"currency":"CNY"},
{"userId":30,"IBAN":"LB18 5869 1WQH 63DV 54FZ 5WRT TIFB","balance":32,"currency":"CNY"},
{"userId":13,"IBAN":"GE38 ZJ54 2673 6202 0234 01","balance":86,"currency":"CNY"},
{"userId":26,"IBAN":"FR73 2235 5121 07EK TAWN 5HRX G01","balance":10,"currency":"CNY"},
{"userId":10,"IBAN":"FO42 1776 4305 4148 23","balance":16,"currency":"MKD"},
{"userId":25,"IBAN":"FR54 8670 9717 54VC TSMP NI4Y T92","balance":5,"currency":"CNY"},
{"userId":2,"IBAN":"CZ06 1841 4456 4511 0199 3059","balance":86,"currency":"RUB"},
{"userId":27,"IBAN":"FR51 0826 3095 059Z CYEO YHOK H10","balance":87,"currency":"IDR"}]